<?xml version="1.0" encoding="UTF-8" standalone="no"?>
<graphml xmlns="http://graphml.graphdrawing.org/xmlns" xmlns:java="http://www.yworks.com/xml/yfiles-common/1.0/java" xmlns:sys="http://www.yworks.com/xml/yfiles-common/markup/primitives/2.0" xmlns:x="http://www.yworks.com/xml/yfiles-common/markup/2.0" xmlns:xsi="http://www.w3.org/2001/XMLSchema-instance" xmlns:y="http://www.yworks.com/xml/graphml" xmlns:yed="http://www.yworks.com/xml/yed/3" xsi:schemaLocation="http://graphml.graphdrawing.org/xmlns http://www.yworks.com/xml/schema/graphml/1.1/ygraphml.xsd">
  <!--Created by yEd 3.18.2-->
  <key attr.name="Description" attr.type="string" for="graph" id="d0"/>
  <key for="port" id="d1" yfiles.type="portgraphics"/>
  <key for="port" id="d2" yfiles.type="portgeometry"/>
  <key for="port" id="d3" yfiles.type="portuserdata"/>
  <key attr.name="url" attr.type="string" for="node" id="d4"/>
  <key attr.name="description" attr.type="string" for="node" id="d5"/>
  <key for="node" id="d6" yfiles.type="nodegraphics"/>
  <key for="graphml" id="d7" yfiles.type="resources"/>
  <key attr.name="url" attr.type="string" for="edge" id="d8"/>
  <key attr.name="description" attr.type="string" for="edge" id="d9"/>
  <key for="edge" id="d10" yfiles.type="edgegraphics"/>
  <graph edgedefault="directed" id="G">
    <data key="d0"/>
    <node id="n0" yfiles.foldertype="group">
      <data key="d6">
        <y:TableNode configuration="YED_TABLE_NODE">
          <y:Geometry height="662.6098963939721" width="1525.9391819160392" x="321.26283039138207" y="-609.6651298859664"/>
          <y:Fill color="#ECF5FF" color2="#0042F440" transparent="false"/>
          <y:BorderStyle color="#000000" type="line" width="1.0"/>
          <y:NodeLabel alignment="center" autoSizePolicy="content" fontFamily="Dialog" fontSize="15" fontStyle="plain" hasBackgroundColor="false" hasLineColor="false" height="22.37646484375" horizontalTextPosition="center" iconTextGap="4" modelName="internal" modelPosition="t" textColor="#000000" verticalTextPosition="bottom" visible="true" width="310.76025390625" x="607.5894640048946" y="4.0">System overview - multiple sensors with mesh</y:NodeLabel>
          <y:NodeLabel alignment="center" autoSizePolicy="content" fontFamily="Dialog" fontSize="12" fontStyle="plain" hasBackgroundColor="false" hasLineColor="false" height="18.701171875" horizontalTextPosition="center" iconTextGap="4" modelName="custom" textColor="#000000" verticalTextPosition="bottom" visible="true" width="80.037109375" x="548.7556649034583" y="33.0">IT Technology<y:LabelModel>
              <y:ColumnNodeLabelModel offset="3.0"/>
            </y:LabelModel>
            <y:ModelParameter>
              <y:ColumnNodeLabelModelParameter id="column_0" inside="true" verticalPosition="0.0"/>
            </y:ModelParameter>
          </y:NodeLabel>
          <y:NodeLabel alignment="center" autoSizePolicy="content" fontFamily="Dialog" fontSize="12" fontStyle="plain" hasBackgroundColor="false" hasLineColor="false" height="18.701171875" horizontalTextPosition="center" iconTextGap="4" modelName="custom" textColor="#000000" verticalTextPosition="bottom" visible="true" width="73.369140625" x="1315.0592402364778" y="33.0">Data science<y:LabelModel>
              <y:ColumnNodeLabelModel offset="3.0"/>
            </y:LabelModel>
            <y:ModelParameter>
              <y:ColumnNodeLabelModelParameter id="column_1" inside="true" verticalPosition="0.0"/>
            </y:ModelParameter>
          </y:NodeLabel>
          <y:StyleProperties>
            <y:Property class="java.awt.Color" name="yed.table.section.color" value="#7192b2"/>
            <y:Property class="java.lang.Double" name="yed.table.header.height" value="24.0"/>
            <y:Property class="java.awt.Color" name="yed.table.lane.color.main" value="#c4d7ed"/>
            <y:Property class="java.awt.Color" name="yed.table.lane.color.alternating" value="#abc8e2"/>
            <y:Property class="java.awt.Color" name="yed.table.header.color.alternating" value="#abc8e2"/>
            <y:Property class="java.lang.String" name="yed.table.lane.style" value="lane.style.columns"/>
            <y:Property class="java.awt.Color" name="yed.table.header.color.main" value="#c4d7ed"/>
          </y:StyleProperties>
          <y:State autoResize="true" closed="false" closedHeight="80.0" closedWidth="100.0"/>
          <y:Insets bottom="0" bottomF="0.0" left="0" leftF="0.0" right="0" rightF="0.0" top="0" topF="0.0"/>
          <y:BorderInsets bottom="0" bottomF="0.0" left="0" leftF="0.0" right="0" rightF="0.0" top="0" topF="0.0"/>
          <y:Table autoResizeTable="true" defaultColumnWidth="120.0" defaultMinimumColumnWidth="80.0" defaultMinimumRowHeight="50.0" defaultRowHeight="80.0">
            <y:DefaultColumnInsets bottom="0.0" left="0.0" right="0.0" top="24.0"/>
            <y:DefaultRowInsets bottom="0.0" left="0.0" right="0.0" top="0.0"/>
            <y:Insets bottom="0.0" left="0.0" right="0.0" top="30.0"/>
            <y:Columns>
              <y:Column id="column_0" minimumWidth="80.0" width="1177.5484391819166">
                <y:Insets bottom="0.0" left="0.0" right="0.0" top="24.0"/>
              </y:Column>
              <y:Column id="column_1" minimumWidth="80.0" width="348.39074273412257">
                <y:Insets bottom="0.0" left="0.0" right="0.0" top="24.0"/>
              </y:Column>
            </y:Columns>
            <y:Rows>
              <y:Row height="608.6098963939721" id="row_0" minimumHeight="50.0">
                <y:Insets bottom="0.0" left="0.0" right="0.0" top="0.0"/>
              </y:Row>
            </y:Rows>
          </y:Table>
        </y:TableNode>
      </data>
      <graph edgedefault="directed" id="n0:"/>
    </node>
    <node id="n1">
      <data key="d6">
        <y:GenericNode configuration="com.yworks.sbgn.Macromolecule">
          <y:Geometry height="437.88175594289476" width="206.5625" x="901.6699213494015" y="-472.0619322497438"/>
          <y:Fill hasColor="false" transparent="false"/>
          <y:BorderStyle color="#000000" type="dashed" width="1.0"/>
          <y:NodeLabel alignment="center" autoSizePolicy="content" fontFamily="Dialog" fontSize="12" fontStyle="plain" hasBackgroundColor="false" hasLineColor="false" height="33.40234375" horizontalTextPosition="center" iconTextGap="4" modelName="custom" textColor="#000000" verticalTextPosition="center" visible="true" width="64.71484375" x="70.923828125" y="202.23970609644738">Bluetooth 5
Mesh<y:LabelModel>
              <y:SmartNodeLabelModel distance="4.0"/>
            </y:LabelModel>
            <y:ModelParameter>
              <y:SmartNodeLabelModelParameter labelRatioX="0.0" labelRatioY="0.0" nodeRatioX="0.0" nodeRatioY="0.0" offsetX="0.0" offsetY="0.0" upX="0.0" upY="-1.0"/>
            </y:ModelParameter>
          </y:NodeLabel>
          <y:StyleProperties>
            <y:Property class="java.lang.Integer" name="com.yworks.sbgn.style.radius" value="10"/>
          </y:StyleProperties>
        </y:GenericNode>
      </data>
    </node>
    <node id="n2">
      <data key="d6">
        <y:GenericNode configuration="ShinyPlateNodeWithShadow">
          <y:Geometry height="118.0" width="118.0" x="571.4199213494014" y="-500.2301763068491"/>
          <y:Fill color="#FF6666" transparent="false"/>
          <y:BorderStyle hasColor="false" type="line" width="1.0"/>
          <y:NodeLabel alignment="center" autoSizePolicy="content" fontFamily="Dialog" fontSize="12" fontStyle="plain" hasBackgroundColor="false" hasLineColor="false" height="18.701171875" horizontalTextPosition="center" iconTextGap="4" modelName="custom" textColor="#000000" verticalTextPosition="bottom" visible="true" width="77.365234375" x="20.3173828125" y="49.6494140625">Hydac sensor<y:LabelModel>
              <y:SmartNodeLabelModel distance="4.0"/>
            </y:LabelModel>
            <y:ModelParameter>
              <y:SmartNodeLabelModelParameter labelRatioX="0.0" labelRatioY="0.0" nodeRatioX="0.0" nodeRatioY="0.0" offsetX="0.0" offsetY="0.0" upX="0.0" upY="-1.0"/>
            </y:ModelParameter>
          </y:NodeLabel>
        </y:GenericNode>
      </data>
    </node>
    <node id="n3">
      <data key="d6">
        <y:GenericNode configuration="ShinyPlateNodeWithShadow">
          <y:Geometry height="118.0" width="118.0" x="783.6699213494015" y="-500.2301763068491"/>
          <y:Fill color="#00CCFF" transparent="false"/>
          <y:BorderStyle hasColor="false" type="line" width="1.0"/>
          <y:NodeLabel alignment="center" autoSizePolicy="content" fontFamily="Dialog" fontSize="12" fontStyle="plain" hasBackgroundColor="false" hasLineColor="false" height="18.701171875" horizontalTextPosition="center" iconTextGap="4" modelName="custom" textColor="#000000" verticalTextPosition="bottom" visible="true" width="82.046875" x="17.9765625" y="49.6494140625">Particle Xenon<y:LabelModel>
              <y:SmartNodeLabelModel distance="4.0"/>
            </y:LabelModel>
            <y:ModelParameter>
              <y:SmartNodeLabelModelParameter labelRatioX="0.0" labelRatioY="0.0" nodeRatioX="0.0" nodeRatioY="0.0" offsetX="0.0" offsetY="0.0" upX="0.0" upY="-1.0"/>
            </y:ModelParameter>
          </y:NodeLabel>
        </y:GenericNode>
      </data>
    </node>
    <node id="n4">
      <data key="d6">
        <y:GenericNode configuration="ShinyPlateNodeWithShadow">
          <y:Geometry height="118.0" width="118.0" x="571.4199213494014" y="-308.705176306849"/>
          <y:Fill color="#FF6666" transparent="false"/>
          <y:BorderStyle hasColor="false" type="line" width="1.0"/>
          <y:NodeLabel alignment="center" autoSizePolicy="content" fontFamily="Dialog" fontSize="12" fontStyle="plain" hasBackgroundColor="false" hasLineColor="false" height="18.701171875" horizontalTextPosition="center" iconTextGap="4" modelName="custom" textColor="#000000" verticalTextPosition="bottom" visible="true" width="77.365234375" x="20.3173828125" y="49.6494140625">Hydac sensor<y:LabelModel>
              <y:SmartNodeLabelModel distance="4.0"/>
            </y:LabelModel>
            <y:ModelParameter>
              <y:SmartNodeLabelModelParameter labelRatioX="0.0" labelRatioY="0.0" nodeRatioX="0.0" nodeRatioY="0.0" offsetX="0.0" offsetY="0.0" upX="0.0" upY="-1.0"/>
            </y:ModelParameter>
          </y:NodeLabel>
        </y:GenericNode>
      </data>
    </node>
    <node id="n5">
      <data key="d6">
        <y:GenericNode configuration="ShinyPlateNodeWithShadow">
          <y:Geometry height="118.0" width="118.0" x="783.6699213494015" y="-308.705176306849"/>
          <y:Fill color="#00CCFF" transparent="false"/>
          <y:BorderStyle hasColor="false" type="line" width="1.0"/>
          <y:NodeLabel alignment="center" autoSizePolicy="content" fontFamily="Dialog" fontSize="12" fontStyle="plain" hasBackgroundColor="false" hasLineColor="false" height="18.701171875" horizontalTextPosition="center" iconTextGap="4" modelName="custom" textColor="#000000" verticalTextPosition="bottom" visible="true" width="82.046875" x="17.9765625" y="49.6494140625">Particle Xenon<y:LabelModel>
              <y:SmartNodeLabelModel distance="4.0"/>
            </y:LabelModel>
            <y:ModelParameter>
              <y:SmartNodeLabelModelParameter labelRatioX="0.0" labelRatioY="0.0" nodeRatioX="0.0" nodeRatioY="0.0" offsetX="0.0" offsetY="0.0" upX="0.0" upY="-1.0"/>
            </y:ModelParameter>
          </y:NodeLabel>
        </y:GenericNode>
      </data>
    </node>
    <node id="n6">
      <data key="d6">
        <y:GenericNode configuration="ShinyPlateNodeWithShadow">
          <y:Geometry height="118.0" width="118.0" x="571.4199213494014" y="-117.18017630684915"/>
          <y:Fill color="#FF6666" transparent="false"/>
          <y:BorderStyle hasColor="false" type="line" width="1.0"/>
          <y:NodeLabel alignment="center" autoSizePolicy="content" fontFamily="Dialog" fontSize="12" fontStyle="plain" hasBackgroundColor="false" hasLineColor="false" height="18.701171875" horizontalTextPosition="center" iconTextGap="4" modelName="custom" textColor="#000000" verticalTextPosition="bottom" visible="true" width="77.365234375" x="20.3173828125" y="49.6494140625">Hydac sensor<y:LabelModel>
              <y:SmartNodeLabelModel distance="4.0"/>
            </y:LabelModel>
            <y:ModelParameter>
              <y:SmartNodeLabelModelParameter labelRatioX="0.0" labelRatioY="0.0" nodeRatioX="0.0" nodeRatioY="0.0" offsetX="0.0" offsetY="0.0" upX="0.0" upY="-1.0"/>
            </y:ModelParameter>
          </y:NodeLabel>
        </y:GenericNode>
      </data>
    </node>
    <node id="n7">
      <data key="d6">
        <y:GenericNode configuration="ShinyPlateNodeWithShadow">
          <y:Geometry height="118.0" width="118.0" x="783.6699213494015" y="-117.18017630684915"/>
          <y:Fill color="#00CCFF" transparent="false"/>
          <y:BorderStyle hasColor="false" type="line" width="1.0"/>
          <y:NodeLabel alignment="center" autoSizePolicy="content" fontFamily="Dialog" fontSize="12" fontStyle="plain" hasBackgroundColor="false" hasLineColor="false" height="18.701171875" horizontalTextPosition="center" iconTextGap="4" modelName="custom" textColor="#000000" verticalTextPosition="bottom" visible="true" width="82.046875" x="17.9765625" y="49.6494140625">Particle Xenon<y:LabelModel>
              <y:SmartNodeLabelModel distance="4.0"/>
            </y:LabelModel>
            <y:ModelParameter>
              <y:SmartNodeLabelModelParameter labelRatioX="0.0" labelRatioY="0.0" nodeRatioX="0.0" nodeRatioY="0.0" offsetX="0.0" offsetY="0.0" upX="0.0" upY="-1.0"/>
            </y:ModelParameter>
          </y:NodeLabel>
        </y:GenericNode>
      </data>
    </node>
    <node id="n8">
      <data key="d6">
        <y:GenericNode configuration="BevelNode3">
          <y:Geometry height="215.546875" width="113.0" x="364.1699213494014" y="-357.478613806849"/>
          <y:Fill color="#C0C0C0" transparent="false"/>
          <y:BorderStyle hasColor="false" type="line" width="1.0"/>
          <y:NodeLabel alignment="center" autoSizePolicy="content" fontFamily="Dialog" fontSize="12" fontStyle="plain" hasBackgroundColor="false" hasLineColor="false" height="33.40234375" horizontalTextPosition="center" iconTextGap="4" modelName="custom" textColor="#000000" verticalTextPosition="bottom" visible="true" width="95.359375" x="8.8203125" y="91.072265625">DUT
(Hydraulic pump)<y:LabelModel>
              <y:SmartNodeLabelModel distance="4.0"/>
            </y:LabelModel>
            <y:ModelParameter>
              <y:SmartNodeLabelModelParameter labelRatioX="0.0" labelRatioY="0.0" nodeRatioX="0.0" nodeRatioY="0.0" offsetX="0.0" offsetY="0.0" upX="0.0" upY="-1.0"/>
            </y:ModelParameter>
          </y:NodeLabel>
        </y:GenericNode>
      </data>
    </node>
    <node id="n9">
      <data key="d6">
        <y:GenericNode configuration="ShinyPlateNodeWithShadow">
          <y:Geometry height="118.0" width="118.0" x="1108.2324213494016" y="-308.705176306849"/>
          <y:Fill color="#33CCCC" transparent="false"/>
          <y:BorderStyle hasColor="false" type="line" width="1.0"/>
          <y:NodeLabel alignment="center" autoSizePolicy="content" fontFamily="Dialog" fontSize="12" fontStyle="plain" hasBackgroundColor="false" hasLineColor="false" height="18.701171875" horizontalTextPosition="center" iconTextGap="4" modelName="custom" textColor="#000000" verticalTextPosition="bottom" visible="true" width="79.369140625" x="19.3154296875" y="49.6494140625">Particle Boron<y:LabelModel>
              <y:SmartNodeLabelModel distance="4.0"/>
            </y:LabelModel>
            <y:ModelParameter>
              <y:SmartNodeLabelModelParameter labelRatioX="0.0" labelRatioY="0.0" nodeRatioX="0.0" nodeRatioY="0.0" offsetX="0.0" offsetY="0.0" upX="0.0" upY="-1.0"/>
            </y:ModelParameter>
          </y:NodeLabel>
        </y:GenericNode>
      </data>
    </node>
    <node id="n10">
      <data key="d6">
        <y:GenericNode configuration="com.yworks.flowchart.cloud">
          <y:Geometry height="92.0" width="152.0" x="1422.998538316767" y="-295.705176306849"/>
          <y:Fill color="#E8EEF7" color2="#FF0000" transparent="false"/>
          <y:BorderStyle color="#000000" type="line" width="1.0"/>
          <y:NodeLabel alignment="center" autoSizePolicy="content" fontFamily="Dialog" fontSize="12" fontStyle="plain" hasBackgroundColor="false" hasLineColor="false" height="33.40234375" horizontalTextPosition="center" iconTextGap="4" modelName="custom" textColor="#000000" verticalTextPosition="bottom" visible="true" width="75.3671875" x="38.31640625" y="29.298828125">Particle
Device Cloud<y:LabelModel>
              <y:SmartNodeLabelModel distance="4.0"/>
            </y:LabelModel>
            <y:ModelParameter>
              <y:SmartNodeLabelModelParameter labelRatioX="0.0" labelRatioY="0.0" nodeRatioX="0.0" nodeRatioY="0.0" offsetX="0.0" offsetY="0.0" upX="0.0" upY="-1.0"/>
            </y:ModelParameter>
          </y:NodeLabel>
        </y:GenericNode>
      </data>
    </node>
    <node id="n11">
      <data key="d6">
        <y:ImageNode>
          <y:Geometry height="48.0" width="48.0" x="901.6699213494015" y="-465.2301763068491"/>
          <y:Fill color="#CCCCFF" transparent="false"/>
          <y:BorderStyle color="#000000" type="line" width="1.0"/>
          <y:NodeLabel alignment="center" autoSizePolicy="content" fontFamily="Dialog" fontSize="12" fontStyle="plain" hasBackgroundColor="false" hasLineColor="false" hasText="false" height="4.0" horizontalTextPosition="center" iconTextGap="4" modelName="internal" modelPosition="c" textColor="#000000" verticalTextPosition="bottom" visible="true" width="4.0" x="22.0" y="22.0"/>
          <y:Image alphaImage="true" refid="1"/>
        </y:ImageNode>
      </data>
    </node>
    <node id="n12">
      <data key="d6">
        <y:ImageNode>
          <y:Geometry height="48.0" width="48.0" x="901.6699213494015" y="-273.705176306849"/>
          <y:Fill color="#CCCCFF" transparent="false"/>
          <y:BorderStyle color="#000000" type="line" width="1.0"/>
          <y:Image alphaImage="true" refid="1"/>
        </y:ImageNode>
      </data>
    </node>
    <node id="n13">
      <data key="d6">
        <y:ImageNode>
          <y:Geometry height="48.0" width="48.0" x="901.6699213494015" y="-82.18017630684915"/>
          <y:Fill color="#CCCCFF" transparent="false"/>
          <y:BorderStyle color="#000000" type="line" width="1.0"/>
          <y:NodeLabel alignment="center" autoSizePolicy="content" fontFamily="Dialog" fontSize="12" fontStyle="plain" hasBackgroundColor="false" hasLineColor="false" hasText="false" height="4.0" horizontalTextPosition="center" iconTextGap="4" modelName="internal" modelPosition="c" textColor="#000000" verticalTextPosition="bottom" visible="true" width="4.0" x="22.0" y="22.0"/>
          <y:Image alphaImage="true" refid="1"/>
        </y:ImageNode>
      </data>
    </node>
    <node id="n14">
      <data key="d6">
        <y:ImageNode>
          <y:Geometry height="48.0" width="48.0" x="1060.2324213494016" y="-273.705176306849"/>
          <y:Fill color="#CCCCFF" transparent="false"/>
          <y:BorderStyle color="#000000" type="line" width="1.0"/>
          <y:Image alphaImage="true" refid="1"/>
        </y:ImageNode>
      </data>
    </node>
    <node id="n15">
      <data key="d6">
        <y:SVGNode>
          <y:Geometry height="45.56999588012695" width="67.49800109863281" x="1133.4834208000852" y="-464.0151742469126"/>
          <y:Fill color="#CCCCFF" transparent="false"/>
          <y:BorderStyle color="#000000" type="line" width="1.0"/>
          <y:NodeLabel alignment="center" autoSizePolicy="content" fontFamily="Dialog" fontSize="12" fontStyle="plain" hasBackgroundColor="false" hasLineColor="false" hasText="false" height="4.0" horizontalTextPosition="center" iconTextGap="4" modelName="custom" textColor="#000000" verticalTextPosition="bottom" visible="true" width="4.0" x="31.749000549316406" y="49.56999588012695">
            <y:LabelModel>
              <y:SmartNodeLabelModel distance="4.0"/>
            </y:LabelModel>
            <y:ModelParameter>
              <y:SmartNodeLabelModelParameter labelRatioX="0.0" labelRatioY="-0.5" nodeRatioX="0.0" nodeRatioY="0.5" offsetX="0.0" offsetY="4.0" upX="0.0" upY="-1.0"/>
            </y:ModelParameter>
          </y:NodeLabel>
          <y:SVGNodeProperties usingVisualBounds="true"/>
          <y:SVGModel svgBoundsPolicy="0">
            <y:SVGContent refid="2"/>
          </y:SVGModel>
        </y:SVGNode>
      </data>
    </node>
    <node id="n16">
      <data key="d6">
        <y:GenericNode configuration="ShinyPlateNodeWithShadow">
          <y:Geometry height="130.9909344725512" width="140.88536060279876" x="1306.0854597376497" y="-506.816698399227"/>
          <y:Fill color="#C0C0C0" transparent="false"/>
          <y:BorderStyle hasColor="false" type="line" width="1.0"/>
          <y:NodeLabel alignment="center" autoSizePolicy="content" fontFamily="Dialog" fontSize="12" fontStyle="plain" hasBackgroundColor="false" hasLineColor="false" height="18.701171875" horizontalTextPosition="center" iconTextGap="4" modelName="custom" textColor="#000000" verticalTextPosition="bottom" visible="true" width="73.357421875" x="33.76396936389938" y="56.1448812987756">Raspberry Pi<y:LabelModel>
              <y:SmartNodeLabelModel distance="4.0"/>
            </y:LabelModel>
            <y:ModelParameter>
              <y:SmartNodeLabelModelParameter labelRatioX="0.0" labelRatioY="0.0" nodeRatioX="0.0" nodeRatioY="0.0" offsetX="0.0" offsetY="0.0" upX="0.0" upY="-1.0"/>
            </y:ModelParameter>
          </y:NodeLabel>
        </y:GenericNode>
      </data>
    </node>
    <node id="n17">
      <data key="d6">
        <y:ImageNode>
          <y:Geometry height="48.0" width="48.0" x="1352.528140039049" y="-429.0151742469126"/>
          <y:Fill color="#CCCCFF" transparent="false"/>
          <y:BorderStyle color="#000000" type="line" width="1.0"/>
          <y:NodeLabel alignment="center" autoSizePolicy="content" fontFamily="Dialog" fontSize="12" fontStyle="plain" hasBackgroundColor="false" hasLineColor="false" hasText="false" height="4.0" horizontalTextPosition="center" iconTextGap="4" modelName="sandwich" modelPosition="s" textColor="#000000" verticalTextPosition="bottom" visible="true" width="4.0" x="22.0" y="52.0"/>
          <y:Image alphaImage="true" refid="3"/>
        </y:ImageNode>
      </data>
    </node>
    <node id="n18">
      <data key="d6">
        <y:GenericNode configuration="ShinyPlateNodeWithShadow">
          <y:Geometry height="110.49946178686764" width="110.49946178686764" x="1662.5343000634648" y="-304.95490720028283"/>
          <y:Fill color="#00A2ED" transparent="false"/>
          <y:BorderStyle hasColor="false" type="line" width="1.0"/>
          <y:NodeLabel alignment="center" autoSizePolicy="content" fontFamily="Dialog" fontSize="12" fontStyle="plain" hasBackgroundColor="false" hasLineColor="false" height="18.701171875" horizontalTextPosition="center" iconTextGap="4" modelName="custom" textColor="#000000" verticalTextPosition="bottom" visible="true" width="86.6875" x="11.905980893433934" y="45.89914495593382">Azure IoT/.NET<y:LabelModel>
              <y:SmartNodeLabelModel distance="4.0"/>
            </y:LabelModel>
            <y:ModelParameter>
              <y:SmartNodeLabelModelParameter labelRatioX="0.0" labelRatioY="0.0" nodeRatioX="0.0" nodeRatioY="0.0" offsetX="0.0" offsetY="0.0" upX="0.0" upY="-1.0"/>
            </y:ModelParameter>
          </y:NodeLabel>
        </y:GenericNode>
      </data>
    </node>
    <node id="n19">
      <data key="d6">
        <y:SVGNode>
          <y:Geometry height="46.887996673583984" width="39.527000427246094" x="1698.0205307432757" y="-131.21591307205858"/>
          <y:Fill color="#CCCCFF" transparent="false"/>
          <y:BorderStyle color="#000000" type="line" width="1.0"/>
          <y:NodeLabel alignment="center" autoSizePolicy="content" fontFamily="Dialog" fontSize="12" fontStyle="plain" hasBackgroundColor="false" hasLineColor="false" hasText="false" height="4.0" horizontalTextPosition="center" iconTextGap="4" modelName="custom" textColor="#000000" verticalTextPosition="bottom" visible="true" width="4.0" x="17.763500213623047" y="50.887996673583984">
            <y:LabelModel>
              <y:SmartNodeLabelModel distance="4.0"/>
            </y:LabelModel>
            <y:ModelParameter>
              <y:SmartNodeLabelModelParameter labelRatioX="0.0" labelRatioY="-0.5" nodeRatioX="0.0" nodeRatioY="0.5" offsetX="0.0" offsetY="4.0" upX="0.0" upY="-1.0"/>
            </y:ModelParameter>
          </y:NodeLabel>
          <y:SVGNodeProperties usingVisualBounds="true"/>
          <y:SVGModel svgBoundsPolicy="0">
            <y:SVGContent refid="4"/>
          </y:SVGModel>
        </y:SVGNode>
      </data>
    </node>
    <edge id="e0" source="n2" target="n3">
      <data key="d10">
        <y:BezierEdge>
          <y:Path sx="0.0" sy="0.0" tx="0.0" ty="0.0"/>
          <y:LineStyle color="#000000" type="line" width="1.0"/>
          <y:Arrows source="none" target="standard"/>
          <y:EdgeLabel alignment="center" configuration="AutoFlippingLabel" distance="2.0" fontFamily="Dialog" fontSize="12" fontStyle="plain" hasBackgroundColor="false" hasLineColor="false" height="18.701171875" horizontalTextPosition="center" iconTextGap="4" modelName="custom" preferredPlacement="anywhere" ratio="0.5" textColor="#000000" verticalTextPosition="bottom" visible="true" width="49.3515625" x="22.45349068533892" y="20.649401329869704">4-20 mA<y:LabelModel>
              <y:SmartEdgeLabelModel autoRotationEnabled="false" defaultAngle="0.0" defaultDistance="10.0"/>
            </y:LabelModel>
            <y:ModelParameter>
              <y:SmartEdgeLabelModelParameter angle="0.0" distance="30.0" distanceToCenter="true" position="right" ratio="0.5" segment="0"/>
            </y:ModelParameter>
            <y:PreferredPlacementDescriptor angle="0.0" angleOffsetOnRightSide="0" angleReference="absolute" angleRotationOnRightSide="co" distance="-1.0" frozen="true" placement="anywhere" side="anywhere" sideReference="relative_to_edge_flow"/>
          </y:EdgeLabel>
        </y:BezierEdge>
      </data>
    </edge>
    <edge id="e1" source="n4" target="n5">
      <data key="d10">
        <y:BezierEdge>
          <y:Path sx="0.0" sy="0.0" tx="0.0" ty="0.0"/>
          <y:LineStyle color="#000000" type="line" width="1.0"/>
          <y:Arrows source="none" target="standard"/>
          <y:EdgeLabel alignment="center" configuration="AutoFlippingLabel" distance="2.0" fontFamily="Dialog" fontSize="12" fontStyle="plain" hasBackgroundColor="false" hasLineColor="false" height="18.701171875" horizontalTextPosition="center" iconTextGap="4" modelName="custom" preferredPlacement="anywhere" ratio="0.5" textColor="#000000" verticalTextPosition="bottom" visible="true" width="64.03515625" x="15.11169381033892" y="20.649407433385363">0.5V - 4.5V<y:LabelModel>
              <y:SmartEdgeLabelModel autoRotationEnabled="false" defaultAngle="0.0" defaultDistance="10.0"/>
            </y:LabelModel>
            <y:ModelParameter>
              <y:SmartEdgeLabelModelParameter angle="0.0" distance="30.0" distanceToCenter="true" position="right" ratio="0.5" segment="0"/>
            </y:ModelParameter>
            <y:PreferredPlacementDescriptor angle="0.0" angleOffsetOnRightSide="0" angleReference="absolute" angleRotationOnRightSide="co" distance="-1.0" frozen="true" placement="anywhere" side="anywhere" sideReference="relative_to_edge_flow"/>
          </y:EdgeLabel>
        </y:BezierEdge>
      </data>
    </edge>
    <edge id="e2" source="n6" target="n7">
      <data key="d10">
        <y:BezierEdge>
          <y:Path sx="0.0" sy="0.0" tx="0.0" ty="0.0"/>
          <y:LineStyle color="#000000" type="line" width="1.0"/>
          <y:Arrows source="none" target="standard"/>
          <y:EdgeLabel alignment="center" configuration="AutoFlippingLabel" distance="2.0" fontFamily="Dialog" fontSize="12" fontStyle="plain" hasBackgroundColor="false" hasLineColor="false" height="18.701171875" horizontalTextPosition="center" iconTextGap="4" modelName="custom" preferredPlacement="anywhere" ratio="0.5" textColor="#000000" verticalTextPosition="bottom" visible="true" width="56.03125" x="19.11364693533892" y="20.649413536900845">CANopen<y:LabelModel>
              <y:SmartEdgeLabelModel autoRotationEnabled="false" defaultAngle="0.0" defaultDistance="10.0"/>
            </y:LabelModel>
            <y:ModelParameter>
              <y:SmartEdgeLabelModelParameter angle="0.0" distance="30.0" distanceToCenter="true" position="right" ratio="0.5" segment="0"/>
            </y:ModelParameter>
            <y:PreferredPlacementDescriptor angle="0.0" angleOffsetOnRightSide="0" angleReference="absolute" angleRotationOnRightSide="co" distance="-1.0" frozen="true" placement="anywhere" side="anywhere" sideReference="relative_to_edge_flow"/>
          </y:EdgeLabel>
        </y:BezierEdge>
      </data>
    </edge>
    <edge id="e3" source="n8" target="n2">
      <data key="d10">
        <y:BezierEdge>
          <y:Path sx="0.0" sy="0.0" tx="0.0" ty="0.0"/>
          <y:LineStyle color="#000000" type="line" width="1.0"/>
          <y:Arrows source="none" target="standard"/>
        </y:BezierEdge>
      </data>
    </edge>
    <edge id="e4" source="n8" target="n4">
      <data key="d10">
        <y:PolyLineEdge>
          <y:Path sx="0.0" sy="0.0" tx="0.0" ty="0.0"/>
          <y:LineStyle color="#000000" type="line" width="1.0"/>
          <y:Arrows source="none" target="standard"/>
          <y:BendStyle smoothed="false"/>
        </y:PolyLineEdge>
      </data>
    </edge>
    <edge id="e5" source="n8" target="n6">
      <data key="d10">
        <y:PolyLineEdge>
          <y:Path sx="0.0" sy="0.0" tx="0.0" ty="0.0"/>
          <y:LineStyle color="#000000" type="line" width="1.0"/>
          <y:Arrows source="none" target="standard"/>
          <y:BendStyle smoothed="false"/>
        </y:PolyLineEdge>
      </data>
    </edge>
    <edge id="e6" source="n9" target="n15">
      <data key="d10">
        <y:PolyLineEdge>
          <y:Path sx="0.0" sy="0.0" tx="0.0" ty="0.0"/>
          <y:LineStyle color="#000000" type="line" width="1.0"/>
          <y:Arrows source="standard" target="standard"/>
          <y:EdgeLabel alignment="center" configuration="AutoFlippingLabel" distance="2.0" fontFamily="Dialog" fontSize="12" fontStyle="plain" hasBackgroundColor="false" hasLineColor="false" height="18.701171875" horizontalTextPosition="center" iconTextGap="4" modelName="custom" preferredPlacement="anywhere" ratio="0.5" textColor="#000000" verticalTextPosition="bottom" visible="true" width="28.673828125" x="15.663085411901648" y="-64.25745883095794">USB<y:LabelModel>
              <y:SmartEdgeLabelModel autoRotationEnabled="false" defaultAngle="0.0" defaultDistance="10.0"/>
            </y:LabelModel>
            <y:ModelParameter>
              <y:SmartEdgeLabelModelParameter angle="0.0" distance="30.0" distanceToCenter="true" position="right" ratio="0.5" segment="0"/>
            </y:ModelParameter>
            <y:PreferredPlacementDescriptor angle="0.0" angleOffsetOnRightSide="0" angleReference="absolute" angleRotationOnRightSide="co" distance="-1.0" frozen="true" placement="anywhere" side="anywhere" sideReference="relative_to_edge_flow"/>
          </y:EdgeLabel>
          <y:BendStyle smoothed="false"/>
        </y:PolyLineEdge>
      </data>
    </edge>
    <edge id="e7" source="n9" target="n10">
      <data key="d10">
        <y:PolyLineEdge>
          <y:Path sx="0.0" sy="0.0" tx="0.0" ty="0.0"/>
          <y:LineStyle color="#000000" type="line" width="1.0"/>
          <y:Arrows source="standard" target="standard"/>
          <y:EdgeLabel alignment="center" configuration="AutoFlippingLabel" distance="2.0" fontFamily="Dialog" fontSize="12" fontStyle="plain" hasBackgroundColor="false" hasLineColor="false" height="18.701171875" horizontalTextPosition="center" iconTextGap="4" modelName="custom" preferredPlacement="anywhere" ratio="0.5" textColor="#000000" verticalTextPosition="bottom" visible="true" width="39.349609375" x="78.70153940339696" y="20.649407433385363">2G/3G<y:LabelModel>
              <y:SmartEdgeLabelModel autoRotationEnabled="false" defaultAngle="0.0" defaultDistance="10.0"/>
            </y:LabelModel>
            <y:ModelParameter>
              <y:SmartEdgeLabelModelParameter angle="0.0" distance="30.0" distanceToCenter="true" position="right" ratio="0.5" segment="0"/>
            </y:ModelParameter>
            <y:PreferredPlacementDescriptor angle="0.0" angleOffsetOnRightSide="0" angleReference="absolute" angleRotationOnRightSide="co" distance="-1.0" frozen="true" placement="anywhere" side="anywhere" sideReference="relative_to_edge_flow"/>
          </y:EdgeLabel>
          <y:BendStyle smoothed="false"/>
        </y:PolyLineEdge>
      </data>
    </edge>
    <edge id="e8" source="n15" target="n16">
      <data key="d10">
        <y:PolyLineEdge>
          <y:Path sx="0.0" sy="0.0" tx="0.0" ty="0.0"/>
          <y:LineStyle color="#000000" type="line" width="1.0"/>
          <y:Arrows source="standard" target="standard"/>
          <y:EdgeLabel alignment="center" configuration="AutoFlippingLabel" distance="2.0" fontFamily="Dialog" fontSize="12" fontStyle="plain" hasBackgroundColor="false" hasLineColor="false" height="18.701171875" horizontalTextPosition="center" iconTextGap="4" modelName="custom" preferredPlacement="anywhere" ratio="0.5" textColor="#000000" verticalTextPosition="bottom" visible="true" width="28.673828125" x="48.28038906037136" y="20.622173541055304">SSH<y:LabelModel>
              <y:SmartEdgeLabelModel autoRotationEnabled="false" defaultAngle="0.0" defaultDistance="10.0"/>
            </y:LabelModel>
            <y:ModelParameter>
              <y:SmartEdgeLabelModelParameter angle="0.0" distance="30.0" distanceToCenter="true" position="right" ratio="0.5" segment="0"/>
            </y:ModelParameter>
            <y:PreferredPlacementDescriptor angle="0.0" angleOffsetOnRightSide="0" angleReference="absolute" angleRotationOnRightSide="co" distance="-1.0" frozen="true" placement="anywhere" side="anywhere" sideReference="relative_to_edge_flow"/>
          </y:EdgeLabel>
          <y:BendStyle smoothed="false"/>
        </y:PolyLineEdge>
      </data>
    </edge>
    <edge id="e9" source="n10" target="n16">
      <data key="d10">
        <y:PolyLineEdge>
          <y:Path sx="0.0" sy="0.0" tx="0.0" ty="0.0"/>
          <y:LineStyle color="#000000" type="line" width="1.0"/>
          <y:Arrows source="standard" target="standard"/>
          <y:EdgeLabel alignment="center" configuration="AutoFlippingLabel" distance="2.0" fontFamily="Dialog" fontSize="12" fontStyle="plain" hasBackgroundColor="false" hasLineColor="false" height="18.701171875" horizontalTextPosition="center" iconTextGap="4" modelName="custom" preferredPlacement="anywhere" ratio="0.5" textColor="#000000" verticalTextPosition="bottom" visible="true" width="23.341796875" x="-8.850073585019572" y="-60.64301368717764">API<y:LabelModel>
              <y:SmartEdgeLabelModel autoRotationEnabled="false" defaultAngle="0.0" defaultDistance="10.0"/>
            </y:LabelModel>
            <y:ModelParameter>
              <y:SmartEdgeLabelModelParameter angle="0.0" distance="30.0" distanceToCenter="true" position="right" ratio="0.5" segment="0"/>
            </y:ModelParameter>
            <y:PreferredPlacementDescriptor angle="0.0" angleOffsetOnRightSide="0" angleReference="absolute" angleRotationOnRightSide="co" distance="-1.0" frozen="true" placement="anywhere" side="anywhere" sideReference="relative_to_edge_flow"/>
          </y:EdgeLabel>
          <y:BendStyle smoothed="false"/>
        </y:PolyLineEdge>
      </data>
    </edge>
    <edge id="e10" source="n18" target="n19">
      <data key="d10">
        <y:PolyLineEdge>
          <y:Path sx="0.0" sy="0.0" tx="0.0" ty="0.0"/>
          <y:LineStyle color="#000000" type="line" width="1.0"/>
          <y:Arrows source="standard" target="standard"/>
          <y:BendStyle smoothed="false"/>
        </y:PolyLineEdge>
      </data>
    </edge>
    <edge id="e11" source="n18" target="n10">
      <data key="d10">
        <y:PolyLineEdge>
          <y:Path sx="0.0" sy="0.0" tx="0.0" ty="0.0"/>
          <y:LineStyle color="#000000" type="line" width="1.0"/>
          <y:Arrows source="standard" target="standard"/>
          <y:EdgeLabel alignment="center" configuration="AutoFlippingLabel" distance="2.0" fontFamily="Dialog" fontSize="12" fontStyle="plain" hasBackgroundColor="false" hasLineColor="false" height="33.40234375" horizontalTextPosition="center" iconTextGap="4" modelName="custom" preferredPlacement="anywhere" ratio="0.5" textColor="#000000" verticalTextPosition="bottom" visible="true" width="60.0390625" x="-73.77996752863419" y="-46.70117850411464">Particle
integration<y:LabelModel>
              <y:SmartEdgeLabelModel autoRotationEnabled="false" defaultAngle="0.0" defaultDistance="10.0"/>
            </y:LabelModel>
            <y:ModelParameter>
              <y:SmartEdgeLabelModelParameter angle="0.0" distance="30.0" distanceToCenter="true" position="right" ratio="0.5" segment="0"/>
            </y:ModelParameter>
            <y:PreferredPlacementDescriptor angle="0.0" angleOffsetOnRightSide="0" angleReference="absolute" angleRotationOnRightSide="co" distance="-1.0" frozen="true" placement="anywhere" side="anywhere" sideReference="relative_to_edge_flow"/>
          </y:EdgeLabel>
          <y:BendStyle smoothed="false"/>
        </y:PolyLineEdge>
      </data>
    </edge>
  </graph>
  <data key="d7">
    <y:Resources>
      <y:Resource id="1" type="java.awt.image.BufferedImage">iVBORw0KGgoAAAANSUhEUgAAADAAAAAwCAYAAABXAvmHAAAGxUlEQVR42u1Za4hVVRRWo3dJb8tq&#13;
7j1nJq3shRZJENlLqSwq6E+I/hB1hCZszmPUH3ahsocaaSDZE9KZ2XufO+Nbyh9BJUH+kMqMSLQi&#13;
0R4EofYim2mts/faZ50zj3vuPNTgHrjMYZ/XenzrW99eM2JE7agdtWNIjmKgbir60YJiIFrhfKcb&#13;
iAMFT/2mf/KHOq/900IQrS368knHL99wUhjtLG4b44ay5ARinxOo7mp+RU98A44uaVikLj7+0V6w&#13;
/jyI8CuOp/5MGya6CoHaDefKCaJlaCBk5WknkMsLvozgmT14T+aZP/B6Q9O60cfH+FA+XAjkT9xo&#13;
x1fvOb6cUbew9fxKz1++qPNCcG5mMZDbM44ccoNo+vBZ/pg6xQmjlRkoqDpPXdtbhgqBmFgI5Z3x&#13;
D85xLXuf26KudwPZmX6nXD6iVBo1pLY3NG07nX8Ii9L15T38HjQUHHwdIrm/b+yLffCe1wBad6Qc&#13;
bpHTnFAe5IGZUFKnDVnkufGupz5AGHBIAfN8UW0RA+w+A9g9aIMExVxsVh/Z62EkhyQTHDZuoNZj&#13;
NuiDQJGbuVFImTGNhrIRincKQgQpE7MDz84HxmoveOIwfwaDc8VT6oI4GKV3zoDsbEqcFC8NyviC&#13;
rx7hkbfGt5QnIIys4c3ie4jmHDSg0jvB2DPBuXnYJxi0vnNCNd46YTMhulxfPTBgqiS2QWMJNmg8&#13;
vPhXluqVY0ubz0o9C0bUe2oSsgoagOdZ58b4754N2VptgxCoX4pe+Wq8Vu93XoKspN8vD44PN55b&#13;
tQMxz1P0TcFq2OjIAxT+AajMSmXMi+6DD26Ba39nMQ9M9JeGRzQ1BVFfzQZjj1EmCE4ArfsZzF6s&#13;
usOyJqWSepBbbCdlxl8Zto+Ftfdzd2FfbQVnLk07Ya912PVAbjTrR8mxfNGP5YHGIPG8G0aPMq5e&#13;
ZdkDIcUpEM5B7yyF++9uCEQ9/jCDAJfnASY/ciomyGgtlcAJo0/6in1zcf4MkLaBDqtXukcaiRAX&#13;
LBaijbw1XnShkf0VMtYKNiqSEzEcIdtUE7awQ7XLBhPIw9jyVW5VmdCYnKGLSt3F1uYkjhJswPhM&#13;
PSBEsEHFPwaXLGSQipO6U/OTiEe397g3FNdUdgAksYWP0TZOKN60PG8iHBesLfLoBV4PuvEx0eap&#13;
f+FvmTtSDKKX6ToGiDJU8MWRuBYAUrYek7przJEB0WpobbdlF+R5/dLWbEEjrjmk6N4+pMR+ggxI&#13;
hXOQOqmZsawqktvWJjjXBS7fzgOhnZx9tHpMRwCzQFTJKS4lOZCGoQs7LeJGiOqrSTaE6JGFZvH7&#13;
pLlrTtUORE10L0lsON9g1nbk4X/TIaNluojELQnFRVPimoDGxLA6lTBPsEHje8msYRlxbJzXdpH+&#13;
VjQ9qS29S4MCvteugfMpOeOpbyvLB8C5hotaEn8EKNBGFbRN9sNusxhnFWXGmDQ1l2/OYl53dRMc&#13;
eD7+Pkhvu2ZUKzDXM9St8zsAO6msA2QYyoN+HTCRq8YByiTPrnUgFM9W4QCJNNhYZCCEqrLHR0zk&#13;
YghptulGzPfSW9YQhEhXoZzOZhcd6RNCQAIVHcDpgTZCRtkiRp62RQzaJit58ZkkemI1Rl1HnoyP&#13;
A7OuF711lIo4nlqYe0nEkaQo+O0fV85AEK01hbjHRg+KJ14DPc/YapOJ9s/YRRPO7ntHBvfupSkE&#13;
GsdUbblHEDzxdbIm9mpqjd7K0cgoAqLLpjreKsYK9DBxfirVoViRFoJCJApTwwYos43Yx0R1VRbr&#13;
GAjMBodhYUHHZYwF51XWQcjdSWHNNN15Sm8vcUO1jW08Hufv4fKDipZtQ2fxXV7SHNUT9pmW6Daz&#13;
NjcJlN705NiJmZQFcnsCLfW5gdYBggwWLhU9iq60kWJy0gDF5HRBqx2k/zOQOmQyspM59aHpzF9W&#13;
MyZc0oMdQvUQL1D2gfEIsaJfvjWvAxhdfMYNylclAZJvZJmNsx1kamH+MQpERU/MeuiUDWyqMLv/&#13;
AVjfDvQyLGvkI5WkHtVWUw9H8gzNMryNuj0dEU2psAE3hdkfJvM6UO+L69iWch8NwHjGoRafG8Aw&#13;
a91ovrEmrOIuCqkTowLwqhusA3ULO1xkHlS1BKm4tsxAgddc9TMh1ilx1EF7AXSuUkqrgRDud6lp&#13;
IU07Qfsndu6aGQIMYLAlViTFG7XlHwLndyDDUOWEsuXSwY8WS6VRtMlAyhxuBwg6OljdI4dkPIqD&#13;
1nhcCPvl4XdATMRmSdroxP3LaYAOnDz/M6s5cKIdAGmRsElaZvwvjlic4T8xQrULRyi1f0TXjtox&#13;
PMd/6iuj9mEudU4AAAAASUVORK5CYII=</y:Resource>
      <y:Resource id="2">&lt;?xml version="1.0" encoding="utf-8"?&gt;
&lt;svg version="1.1"
	 xmlns="http://www.w3.org/2000/svg" xmlns:xlink="http://www.w3.org/1999/xlink"
	 x="0px" y="0px" width="68px" height="46px" viewBox="-0.064 -0.075 68 46" enable-background="new -0.064 -0.075 68 46"
	 xml:space="preserve"&gt;
&lt;defs&gt;
&lt;/defs&gt;
&lt;radialGradient id="SVGID_1_" cx="478.8413" cy="1991.2729" r="21.6001" gradientTransform="matrix(1.15 0 0 1 -526.6598 -1982.4023)" gradientUnits="userSpaceOnUse"&gt;
	&lt;stop  offset="0" style="stop-color:#F2F2F2"/&gt;
	&lt;stop  offset="1" style="stop-color:#8D8D8D"/&gt;
&lt;/radialGradient&gt;
&lt;path fill="url(#SVGID_1_)" d="M10.263,1.903c0-0.987,0.807-1.794,1.794-1.794h43.279c0.986,0,1.795,0.807,1.795,1.794v26.978
	c0,0.987-0.809,1.794-1.795,1.794h-43.28c-0.987,0-1.794-0.807-1.794-1.794L10.263,1.903L10.263,1.903z"/&gt;
&lt;path display="none" fill="none" stroke="#3C89C9" stroke-width="0.2185" stroke-linecap="round" stroke-linejoin="round" stroke-miterlimit="10" d="
	M10.263,1.903c0-0.987,0.807-1.794,1.794-1.794h43.279c0.986,0,1.795,0.807,1.795,1.794v26.978c0,0.987-0.809,1.794-1.795,1.794
	h-43.28c-0.987,0-1.794-0.807-1.794-1.794L10.263,1.903L10.263,1.903z"/&gt;
&lt;radialGradient id="SVGID_2_" cx="455.894" cy="1983.9624" r="47.8462" fx="493.5344" fy="1977.5143" gradientTransform="matrix(1.1935 0 0 1 -509.6731 -1982.4023)" gradientUnits="userSpaceOnUse"&gt;
	&lt;stop  offset="0" style="stop-color:#4D4D4D"/&gt;
	&lt;stop  offset="1" style="stop-color:#999999"/&gt;
&lt;/radialGradient&gt;
&lt;path fill="url(#SVGID_2_)" d="M11.18,2.819c0-0.987,0.807-1.794,1.794-1.794h41.649c0.986,0,1.795,0.807,1.795,1.794v24.943
	c0,0.985-0.809,1.794-1.795,1.794H12.974c-0.987,0-1.794-0.809-1.794-1.794V2.819z"/&gt;
&lt;radialGradient id="SVGID_3_" cx="456.8843" cy="1984.0386" r="30.6699" gradientTransform="matrix(1.1923 0 0 1 -510.1314 -1982.4023)" gradientUnits="userSpaceOnUse"&gt;
	&lt;stop  offset="0" style="stop-color:#9CD7FF"/&gt;
	&lt;stop  offset="1" style="stop-color:#3C89C9"/&gt;
&lt;/radialGradient&gt;
&lt;path fill="url(#SVGID_3_)" d="M11.689,3.228c0-0.987,0.807-1.794,1.794-1.794h40.633c0.986,0,1.795,0.807,1.795,1.794v24.126
	c0,0.986-0.809,1.794-1.795,1.794H13.483c-0.987,0-1.794-0.809-1.794-1.794V3.228z"/&gt;
&lt;path opacity="0.24" fill="#F2F2F2" d="M11.689,21.472V3.228c0-0.987,0.807-1.794,1.794-1.794h40.633
	c0.986,0,1.795,0.807,1.795,1.794v9.454c0,0.987-10.518,5.21-18.256,6.795C29.917,21.062,11.689,21.472,11.689,21.472z"/&gt;
&lt;linearGradient id="SVGID_4_" gradientUnits="userSpaceOnUse" x1="131.3501" y1="-212.2612" x2="131.3501" y2="-170.6274" gradientTransform="matrix(1 0 0 -1 -97.6001 -165.0498)"&gt;
	&lt;stop  offset="0" style="stop-color:#4D4D4D"/&gt;
	&lt;stop  offset="0.0667" style="stop-color:#717171"/&gt;
	&lt;stop  offset="0.069" style="stop-color:#757575"/&gt;
	&lt;stop  offset="0.0831" style="stop-color:#8C8C8C"/&gt;
	&lt;stop  offset="0.0996" style="stop-color:#9E9E9E"/&gt;
	&lt;stop  offset="0.1196" style="stop-color:#AAAAAA"/&gt;
	&lt;stop  offset="0.1466" style="stop-color:#B1B1B1"/&gt;
	&lt;stop  offset="0.2121" style="stop-color:#B3B3B3"/&gt;
	&lt;stop  offset="1" style="stop-color:#C5C5C5"/&gt;
&lt;/linearGradient&gt;
&lt;path fill="url(#SVGID_4_)" d="M58.385,32.234c-0.689-0.856-2.154-1.559-3.254-1.559H12c-1.1,0-2.552,0.711-3.227,1.579
	l-7.546,9.717C0,43.55,0.042,43.785,0,44.55v0.125c0.056,0.393,0.311,1.002,1.248,1.002h64.75c0.75,0.002,1.5-0.252,1.5-1.002V44.55
	c0-0.813,0-0.813-1.254-2.559L58.385,32.234z"/&gt;
&lt;path opacity="0.23" fill="#F2F2F2" enable-background="new    " d="M58.385,32.234c-0.689-0.856-2.154-1.559-3.254-1.559H12
	c-1.1,0-2.552,0.711-3.227,1.579l-7.055,9.085l58.098-7.33L58.385,32.234z"/&gt;
&lt;path fill="#6E6E6E" d="M59.75,37.205c0.344,0.431,0.172,0.783-0.377,0.783H8.249c-0.55,0-0.742-0.369-0.427-0.819l2.786-3.986
	c0.315-0.45,1.023-0.819,1.573-0.819h42.729c0.551,0,1.279,0.354,1.623,0.783L59.75,37.205z"/&gt;
&lt;path fill="#6E6E6E" d="M40.43,41.906c0.072,0.217-0.057,0.395-0.285,0.395H26.727c-0.229,0-0.364-0.18-0.3-0.398l0.822-2.826
	c0.064-0.221,0.303-0.399,0.532-0.399h11.167c0.229,0,0.475,0.179,0.547,0.396L40.43,41.906z"/&gt;
&lt;/svg&gt;
</y:Resource>
      <y:Resource id="3" type="java.awt.image.BufferedImage">iVBORw0KGgoAAAANSUhEUgAAADAAAAAwCAYAAABXAvmHAAAHyklEQVR42u1aWXAURRjOZu9cm2uz&#13;
2RDIJgQwIeQgISEhgZwkgCCHJFxGrgQ5pJDiKrAABRGQQwQUgyigWChyyiVoOIzlo75YvllS8AJV&#13;
iD6gPiC//zf0LLOTnV0MswhVdNVXZHu6//7+7v/qGcLCnrYnr5kY6YwWxiTGQkYpw/MfZGBsGWMZ&#13;
o5kxXfSZQkm8iXGYcS3MEEbWaDOZ7Uayx1kIv43m8Dv87AZjASPRz/xE8eyGIdxwh8dTBM+V/4UM&#13;
xjWxRpOexGsYfzIoo9xFJTN60bPrC2nkxiJqPVNHUw4MpmFrCmj01mLKb/KQLcYMIr/x+EqFjEr0&#13;
GS3hlN/ooYbX8iU0f1ZJM45X03NbBtCYd0qoqLknZQ1PJawl1qzVQ4GpUU4btZ6upbkXG4Ki6YMy&#13;
qlqcAyVu8ly3wM0BL2bS+F2lDyTjpfNDyZUdCyVm6qHAaigw8aNy7wIzT9ZIiwQi0avGDQIbGBtd&#13;
WbGBSV9ooOnHqr2/px2tpnhPFOav1UOBSrZZql+V32mna5fnSmbg9yT2DMIp3OL5t4a9XuB3zIwT&#13;
NVS7IpfGbi/x6R+3YyCZrEbSy4S6swJ/wSzUBOa019OQBdmUPSLVryL2WItkzy2najsRzx2bJvnT&#13;
rLN1neaN2jSA2F/+5rlpejnyocSe0ZpmA0J96lKoYn6WZA7oa2ViiDBQYNL+Cu/Y+tX5lD4oiZoP&#13;
DtE0KU+pE/OO6hmJShDmSlt7B7TlwikZ5M6Jk5w1szJZjibk7hdHjbvLKKPCJSkayH+GrswjmKzI&#13;
E7q2b+BYY7YVB1SiekmOl7gaUDDQ3AnsN9gAHnspFInMxvgBSjS2lWmSqFrUV1OBvPEezXmTPxlM&#13;
KXnxGPcjwx6qbAynOoKEhJ1W2jHMonxeFplsRk0FYBqFkzN8nBohc8S6/vcSIMvW03G1moWxC4Ri&#13;
UiIo73mP5HRSOaAgm2GKpjp7Cg2zd6Pe5hgyKJ5ZIk3UvShBikTO3jFy/24hO+StgPFTeJiB8i3x&#13;
NC0qk16JyabGSI9EpIcpknYklFCHe5gPPkwcRP0skn1TAc+bEJlOIyO6U6Y5WlbuZ0bhoyD/exqT&#13;
3JNY5kOwOaonOY02Ou2q7URexoXkeso2O6ieT0XZ38ayerIiLPuPUCqBUveX+HArnXBV+xCYFd1b&#13;
2sUya5ImeRmzo/tIpzCRT0DZf5YV95ik8uHXUJXVqP1piSOn087Ltm02hNOauAJN8l+6aiSTkceP&#13;
i0zzeb41foD8bFIoFNgPu5dN5FxyHdXa3Z0jDaOvOZbmxDxDa1mZTfFFtDw2l0axvTvCzZKSkCOP&#13;
r7Il01csS1Yi0WhF/75QKHAJBLDIbrbZbsYIiUAU901lR97MRHcllFILm5PLaO+kGMzjzbj+dNHd&#13;
QJcY+5zlUpSCMm4e3yZ8qtCSgPEX9SZvZly3GoxUYXORSexgjiVWsl21qRxJqpJIeUsJ/vu4ym9k&#13;
rODTgRKQOSIiVd6Y63qGVDjUAdk8ZFLpvKNnFUevxvq4Qu/Y+TFZAR17RnQv71gbb5JY56AezmzA&#13;
HdXIu/Myk/g8aYh39wM5qxwyQQZjP3UODjgW/hRlMJGF/eMUn+g6NjX7vblHBIcutwkgAIeUF0NW&#13;
RSi9zHYcLGSCFOZ/7KwIOrZeZGz598rYPF0i0mU4pJIssm8WJ6NghNr5BORos4HNKdj4Js7kuZyp&#13;
lX3p9/JCx8PUPP+MjujhIxRxPJvDZDBCSx33y+oSqzPoeDgwIpVaKXDoqkOnYvHpHCJlgTiJSDYL&#13;
+MRJTkpaZL5OHirVRMrcEOgUINcRbpF8ACcn97dySBYyUrta/98doziB9xNLvaSGq+oZpfOKWO4D&#13;
kENS8zcHFas87u34Ym8/kh84MKxdNaPvEcMvCh9oub8jEpCJ21ipb/nZKT6RVzmmd+edx5x57Pjb&#13;
EorpvYSBtJjNCdkZJ1FsTaRV7KDbuWJFDsgTFaqMF7g0kU9RZOWOh3HiydKlnAsv7GyawiyUUJYG&#13;
iCZY3N9OIx8YNC47KDEQdlHRIr/AJ8Szh37NeBQEUzhDRnPZUM/pv4ydUo7xSiAMXlDYsD8Is/Ax&#13;
rbl8WlAa9j/IlqRMZof1yMRF8mJIMDKRw0mVkjkoySxVVar+gJwgj8eG7FbdK3AZUsjsr1c5cRUC&#13;
z6jqHkSPBoUD4tYVTAEAOwyTUV+KpHsBm4+Qd0XPYm4nhJ7wU5BBCZjOgyYsOLtBFZ6VwCYJBbbp&#13;
qcBYCN3MFw5/i+7kSIPn6qSnVX3iBLQcHacoFBilpwKxjNu4fGgRS+LoAWffrBHrgS/Yb2D3CL9B&#13;
nPy2WFPXthEZ+C0NgohMcjjENfOcotRGZIKD40IUFsB83uWTxHzxWl73hkvNdwh7/pRAkafODbic&#13;
4G2DSZEngGaRrNRmKEroDrFWSJqT0Q4nLOUdx50AmRZvGpQJCicFxy7nmA5zwdsKKCOPQYbdwv4E&#13;
k8J85BahZLtYI6TNyJgtfexTJTIQW+boR+c1HPQQE4Yf+cnE14RM46P83Opg7FUSWeToGzQK4fKu&#13;
Ir9XyPrfGr4RH0PViEIOuxzovZDIGXfFnNLH6QM40v5V1PW4giqjEGL+Qke2XF1e0bNE0Lsl4wUY&#13;
blGIQslcVuNURLV6VzxzPQn/HaGb+Mb7hkBLV29VT9vj3v4F6kWBhXVnVk4AAAAASUVORK5CYII=</y:Resource>
      <y:Resource id="4">&lt;?xml version="1.0" encoding="utf-8"?&gt;
&lt;svg version="1.1"
	 xmlns="http://www.w3.org/2000/svg" xmlns:xlink="http://www.w3.org/1999/xlink"
	 x="0px" y="0px" width="41px" height="48px" viewBox="-0.875 -0.887 41 48" enable-background="new -0.875 -0.887 41 48"
	 xml:space="preserve"&gt;
&lt;defs&gt;
&lt;/defs&gt;
&lt;linearGradient id="SVGID_1_" gradientUnits="userSpaceOnUse" x1="642.8008" y1="-979.1445" x2="682.0508" y2="-979.1445" gradientTransform="matrix(1 0 0 -1 -642.8008 -939.4756)"&gt;
	&lt;stop  offset="0" style="stop-color:#3C89C9"/&gt;
	&lt;stop  offset="0.1482" style="stop-color:#60A6DD"/&gt;
	&lt;stop  offset="0.3113" style="stop-color:#81C1F0"/&gt;
	&lt;stop  offset="0.4476" style="stop-color:#95D1FB"/&gt;
	&lt;stop  offset="0.5394" style="stop-color:#9CD7FF"/&gt;
	&lt;stop  offset="0.636" style="stop-color:#98D4FD"/&gt;
	&lt;stop  offset="0.7293" style="stop-color:#8DCAF6"/&gt;
	&lt;stop  offset="0.8214" style="stop-color:#79BBEB"/&gt;
	&lt;stop  offset="0.912" style="stop-color:#5EA5DC"/&gt;
	&lt;stop  offset="1" style="stop-color:#3C89C9"/&gt;
&lt;/linearGradient&gt;
&lt;path fill="url(#SVGID_1_)" d="M19.625,36.763C8.787,36.763,0,34.888,0,32.575v10c0,2.313,8.787,4.188,19.625,4.188
	c10.839,0,19.625-1.875,19.625-4.188v-10C39.25,34.888,30.464,36.763,19.625,36.763z"/&gt;
&lt;linearGradient id="SVGID_2_" gradientUnits="userSpaceOnUse" x1="642.8008" y1="-973.1445" x2="682.0508" y2="-973.1445" gradientTransform="matrix(1 0 0 -1 -642.8008 -939.4756)"&gt;
	&lt;stop  offset="0" style="stop-color:#9CD7FF"/&gt;
	&lt;stop  offset="0.0039" style="stop-color:#9DD7FF"/&gt;
	&lt;stop  offset="0.2273" style="stop-color:#BDE5FF"/&gt;
	&lt;stop  offset="0.4138" style="stop-color:#D1EEFF"/&gt;
	&lt;stop  offset="0.5394" style="stop-color:#D9F1FF"/&gt;
	&lt;stop  offset="0.6155" style="stop-color:#D5EFFE"/&gt;
	&lt;stop  offset="0.6891" style="stop-color:#C9E7FA"/&gt;
	&lt;stop  offset="0.7617" style="stop-color:#B6DAF3"/&gt;
	&lt;stop  offset="0.8337" style="stop-color:#9AC8EA"/&gt;
	&lt;stop  offset="0.9052" style="stop-color:#77B0DD"/&gt;
	&lt;stop  offset="0.9754" style="stop-color:#4D94CF"/&gt;
	&lt;stop  offset="1" style="stop-color:#3C89C9"/&gt;
&lt;/linearGradient&gt;
&lt;path fill="url(#SVGID_2_)" d="M19.625,36.763c10.839,0,19.625-1.875,19.625-4.188l-1.229-2c0,2.168-8.235,3.927-18.396,3.927
	c-9.481,0-17.396-1.959-18.396-3.927l-1.229,2C0,34.888,8.787,36.763,19.625,36.763z"/&gt;
&lt;path fill="#3C89C9" d="M19.625,26.468c10.16,0,19.625,2.775,19.625,2.775c-0.375,2.721-5.367,5.438-19.554,5.438
	c-12.125,0-18.467-2.484-19.541-4.918C-0.127,29.125,9.465,26.468,19.625,26.468z"/&gt;
&lt;linearGradient id="SVGID_3_" gradientUnits="userSpaceOnUse" x1="642.8008" y1="-965.6948" x2="682.0508" y2="-965.6948" gradientTransform="matrix(1 0 0 -1 -642.8008 -939.4756)"&gt;
	&lt;stop  offset="0" style="stop-color:#3C89C9"/&gt;
	&lt;stop  offset="0.1482" style="stop-color:#60A6DD"/&gt;
	&lt;stop  offset="0.3113" style="stop-color:#81C1F0"/&gt;
	&lt;stop  offset="0.4476" style="stop-color:#95D1FB"/&gt;
	&lt;stop  offset="0.5394" style="stop-color:#9CD7FF"/&gt;
	&lt;stop  offset="0.636" style="stop-color:#98D4FD"/&gt;
	&lt;stop  offset="0.7293" style="stop-color:#8DCAF6"/&gt;
	&lt;stop  offset="0.8214" style="stop-color:#79BBEB"/&gt;
	&lt;stop  offset="0.912" style="stop-color:#5EA5DC"/&gt;
	&lt;stop  offset="1" style="stop-color:#3C89C9"/&gt;
&lt;/linearGradient&gt;
&lt;path fill="url(#SVGID_3_)" d="M19.625,23.313C8.787,23.313,0,21.438,0,19.125v10c0,2.313,8.787,4.188,19.625,4.188
	c10.839,0,19.625-1.875,19.625-4.188v-10C39.25,21.438,30.464,23.313,19.625,23.313z"/&gt;
&lt;linearGradient id="SVGID_4_" gradientUnits="userSpaceOnUse" x1="642.8008" y1="-959.6948" x2="682.0508" y2="-959.6948" gradientTransform="matrix(1 0 0 -1 -642.8008 -939.4756)"&gt;
	&lt;stop  offset="0" style="stop-color:#9CD7FF"/&gt;
	&lt;stop  offset="0.0039" style="stop-color:#9DD7FF"/&gt;
	&lt;stop  offset="0.2273" style="stop-color:#BDE5FF"/&gt;
	&lt;stop  offset="0.4138" style="stop-color:#D1EEFF"/&gt;
	&lt;stop  offset="0.5394" style="stop-color:#D9F1FF"/&gt;
	&lt;stop  offset="0.6155" style="stop-color:#D5EFFE"/&gt;
	&lt;stop  offset="0.6891" style="stop-color:#C9E7FA"/&gt;
	&lt;stop  offset="0.7617" style="stop-color:#B6DAF3"/&gt;
	&lt;stop  offset="0.8337" style="stop-color:#9AC8EA"/&gt;
	&lt;stop  offset="0.9052" style="stop-color:#77B0DD"/&gt;
	&lt;stop  offset="0.9754" style="stop-color:#4D94CF"/&gt;
	&lt;stop  offset="1" style="stop-color:#3C89C9"/&gt;
&lt;/linearGradient&gt;
&lt;path fill="url(#SVGID_4_)" d="M19.625,23.313c10.839,0,19.625-1.875,19.625-4.188l-1.229-2c0,2.168-8.235,3.926-18.396,3.926
	c-9.481,0-17.396-1.959-18.396-3.926l-1.229,2C0,21.438,8.787,23.313,19.625,23.313z"/&gt;
&lt;path fill="#3C89C9" d="M19.476,13.019c10.161,0,19.625,2.775,19.625,2.775c-0.375,2.721-5.367,5.438-19.555,5.438
	c-12.125,0-18.467-2.485-19.541-4.918C-0.277,15.674,9.316,13.019,19.476,13.019z"/&gt;
&lt;linearGradient id="SVGID_5_" gradientUnits="userSpaceOnUse" x1="642.8008" y1="-952.4946" x2="682.0508" y2="-952.4946" gradientTransform="matrix(1 0 0 -1 -642.8008 -939.4756)"&gt;
	&lt;stop  offset="0" style="stop-color:#3C89C9"/&gt;
	&lt;stop  offset="0.1482" style="stop-color:#60A6DD"/&gt;
	&lt;stop  offset="0.3113" style="stop-color:#81C1F0"/&gt;
	&lt;stop  offset="0.4476" style="stop-color:#95D1FB"/&gt;
	&lt;stop  offset="0.5394" style="stop-color:#9CD7FF"/&gt;
	&lt;stop  offset="0.636" style="stop-color:#98D4FD"/&gt;
	&lt;stop  offset="0.7293" style="stop-color:#8DCAF6"/&gt;
	&lt;stop  offset="0.8214" style="stop-color:#79BBEB"/&gt;
	&lt;stop  offset="0.912" style="stop-color:#5EA5DC"/&gt;
	&lt;stop  offset="1" style="stop-color:#3C89C9"/&gt;
&lt;/linearGradient&gt;
&lt;path fill="url(#SVGID_5_)" d="M19.625,10.113C8.787,10.113,0,8.238,0,5.925v10c0,2.313,8.787,4.188,19.625,4.188
	c10.839,0,19.625-1.875,19.625-4.188v-10C39.25,8.238,30.464,10.113,19.625,10.113z"/&gt;
&lt;linearGradient id="SVGID_6_" gradientUnits="userSpaceOnUse" x1="642.8008" y1="-946.4946" x2="682.0508" y2="-946.4946" gradientTransform="matrix(1 0 0 -1 -642.8008 -939.4756)"&gt;
	&lt;stop  offset="0" style="stop-color:#9CD7FF"/&gt;
	&lt;stop  offset="0.0039" style="stop-color:#9DD7FF"/&gt;
	&lt;stop  offset="0.2273" style="stop-color:#BDE5FF"/&gt;
	&lt;stop  offset="0.4138" style="stop-color:#D1EEFF"/&gt;
	&lt;stop  offset="0.5394" style="stop-color:#D9F1FF"/&gt;
	&lt;stop  offset="0.6155" style="stop-color:#D5EFFE"/&gt;
	&lt;stop  offset="0.6891" style="stop-color:#C9E7FA"/&gt;
	&lt;stop  offset="0.7617" style="stop-color:#B6DAF3"/&gt;
	&lt;stop  offset="0.8337" style="stop-color:#9AC8EA"/&gt;
	&lt;stop  offset="0.9052" style="stop-color:#77B0DD"/&gt;
	&lt;stop  offset="0.9754" style="stop-color:#4D94CF"/&gt;
	&lt;stop  offset="1" style="stop-color:#3C89C9"/&gt;
&lt;/linearGradient&gt;
&lt;path fill="url(#SVGID_6_)" d="M19.625,10.113c10.839,0,19.625-1.875,19.625-4.188l-1.229-2c0,2.168-8.235,3.926-18.396,3.926
	c-9.481,0-17.396-1.959-18.396-3.926L0,5.925C0,8.238,8.787,10.113,19.625,10.113z"/&gt;
&lt;linearGradient id="SVGID_7_" gradientUnits="userSpaceOnUse" x1="644.0293" y1="-943.4014" x2="680.8223" y2="-943.4014" gradientTransform="matrix(1 0 0 -1 -642.8008 -939.4756)"&gt;
	&lt;stop  offset="0" style="stop-color:#9CD7FF"/&gt;
	&lt;stop  offset="1" style="stop-color:#3C89C9"/&gt;
&lt;/linearGradient&gt;
&lt;ellipse fill="url(#SVGID_7_)" cx="19.625" cy="3.926" rx="18.396" ry="3.926"/&gt;
&lt;path opacity="0.24" fill="#FFFFFF" enable-background="new    " d="M31.04,45.982c0,0-4.354,0.664-7.29,0.781
	c-3.125,0.125-8.952,0-8.952,0l-2.384-10.292l0.044-2.108l-1.251-1.154L9.789,23.024l-0.082-0.119L9.5,20.529l-1.65-1.254
	L5.329,8.793c0,0,4.213,0.903,7.234,1.07s8.375,0.25,8.375,0.25l3,9.875l-0.25,1.313l1.063,2.168l2.312,9.645l-0.521,1.416
	l1.46,1.834L31.04,45.982z"/&gt;
&lt;/svg&gt;
</y:Resource>
    </y:Resources>
  </data>
</graphml>
